%YAML 1.1
%TAG !u! tag:unity3d.com,2011:
--- !u!74 &7400000
AnimationClip:
  m_ObjectHideFlags: 0
  m_PrefabParentObject: {fileID: 0}
  m_PrefabInternal: {fileID: 0}
  m_Name: BeginJumpAnim
  serializedVersion: 6
  m_Legacy: 0
  m_Compressed: 0
  m_UseHighQualityCurve: 1
  m_RotationCurves: []
  m_CompressedRotationCurves: []
  m_EulerCurves: []
  m_PositionCurves: []
  m_ScaleCurves: []
  m_FloatCurves: []
  m_PPtrCurves:
  - curve:
    - time: 0
      value: {fileID: 21300000, guid: 744ff8055eadfb449b853fb3b51b2438, type: 3}
    - time: 0.016666668
      value: {fileID: 21300000, guid: 6f631d33de24aae438f6f74123f058ac, type: 3}
    - time: 0.033333335
      value: {fileID: 21300000, guid: 29cb3764cc7cfe84ab2a1920dba917c7, type: 3}
    - time: 0.05
      value: {fileID: 21300000, guid: a12f6a0123391c04bb6e5a68e6a99033, type: 3}
    - time: 0.06666667
      value: {fileID: 21300000, guid: c4d67ce7816da6445a589cd96ab24869, type: 3}
    - time: 0.083333336
      value: {fileID: 21300000, guid: 33c0e8b32e1146b4a93f83d51d7afb12, type: 3}
    - time: 0.1
      value: {fileID: 21300000, guid: 6e6cf1039aef98547923f8108139d979, type: 3}
    - time: 0.11666667
      value: {fileID: 21300000, guid: e6e6afafa0d2e28408e657b75489e6f4, type: 3}
    - time: 0.13333334
      value: {fileID: 21300000, guid: 3c85956958dda044a92e986710ace360, type: 3}
    - time: 0.15
      value: {fileID: 21300000, guid: 0726ce24f0e8a104fbf2ed740b080173, type: 3}
    - time: 0.16666667
      value: {fileID: 21300000, guid: f5a0b4a3087d2df4bac420678356aef6, type: 3}
    - time: 0.18333334
      value: {fileID: 21300000, guid: 938f8e8bbce68694a8828691721da8a9, type: 3}
    - time: 0.2
      value: {fileID: 21300000, guid: 3986f413ee5af4443951de2ac0e4794b, type: 3}
    - time: 0.21666667
      value: {fileID: 21300000, guid: 58d337bf05658a841b83299c41d816bd, type: 3}
    - time: 0.23333333
      value: {fileID: 21300000, guid: 165e1d91e8867614cbf347571ba9b403, type: 3}
    - time: 0.25
      value: {fileID: 21300000, guid: 368d674946c7fce4bac5535d97c9eb71, type: 3}
    - time: 0.26666668
      value: {fileID: 21300000, guid: c4cfe0c0338ce1440b043ccdf9e02452, type: 3}
    - time: 0.28333336
      value: {fileID: 21300000, guid: 460a262b24b8cb548b882e53820ee6f0, type: 3}
    - time: 0.30000004
      value: {fileID: 21300000, guid: ed35632a685d09744ba6f0c288ef9a04, type: 3}
    - time: 0.31666672
      value: {fileID: 21300000, guid: 62ecbbe6d3b87f945993ce47586ef6ed, type: 3}
    - time: 0.3333334
      value: {fileID: 21300000, guid: 3c759e96ff8e2044b89033cfbc43e9c2, type: 3}
    - time: 0.35000008
      value: {fileID: 21300000, guid: 040398b12078bb94b90cd96c629d68f6, type: 3}
    - time: 0.36666676
      value: {fileID: 21300000, guid: 5090c672c2924b646b11f4bb035f3c67, type: 3}
    - time: 0.38333344
      value: {fileID: 21300000, guid: 2976e1410927de74ea9af3a7daa31888, type: 3}
    - time: 0.40000013
      value: {fileID: 21300000, guid: c77d93159511c5d40a2767e621d82814, type: 3}
    - time: 0.4166668
      value: {fileID: 21300000, guid: e8f89c9b6ef7051499e78e5e1f05a4ac, type: 3}
    - time: 0.4333335
      value: {fileID: 21300000, guid: 08d54b4e6df5624438c7d389b73ffaab, type: 3}
    - time: 0.45000017
      value: {fileID: 21300000, guid: ee83b2964a7360245b1e6d44f7a9f8f7, type: 3}
    - time: 0.46666685
      value: {fileID: 21300000, guid: 5a67bd1945dce514986a594e60b73544, type: 3}
    - time: 0.48333353
      value: {fileID: 21300000, guid: 0ae18c6a007ccfa41a8e250c62eacfff, type: 3}
    - time: 0.5000002
      value: {fileID: 21300000, guid: b82f8be35cf191e4aa4a6f7706568b99, type: 3}
    - time: 0.5166668
      value: {fileID: 21300000, guid: deb809020adf35c49a1c89dd6e489768, type: 3}
    - time: 0.5333335
      value: {fileID: 21300000, guid: b180ef84e5236fb4194c52715579e84e, type: 3}
    - time: 0.55000013
      value: {fileID: 21300000, guid: d6d591ec2068f5b48bd0fb8bcd1bf2fc, type: 3}
    - time: 0.5666668
      value: {fileID: 21300000, guid: 95d96208071fbbf44a56c4fb0cda4644, type: 3}
    - time: 0.58333343
      value: {fileID: 21300000, guid: 4d37d92505250a7469f888553b988230, type: 3}
    - time: 0.6000001
      value: {fileID: 21300000, guid: fce5db7f06c54f247b09b057e2cefcc9, type: 3}
    - time: 0.61666673
      value: {fileID: 21300000, guid: 29ea3768523c9f94b8472ed85ab3a4ac, type: 3}
    - time: 0.6333334
      value: {fileID: 21300000, guid: d06af13a3cbc48c4c8e56a35d54df4fb, type: 3}
    - time: 0.65000004
      value: {fileID: 21300000, guid: 0666af0f5b814ab478f0044baf9c08d4, type: 3}
    - time: 0.6666667
      value: {fileID: 21300000, guid: 34d6478f2f155114e897f2f762ee6507, type: 3}
    - time: 0.68333334
      value: {fileID: 21300000, guid: 99c773aa24c46a143b06d9a8913eae14, type: 3}
    - time: 0.7
      value: {fileID: 21300000, guid: f7ed214c2cadf5040a58dbe0a9376536, type: 3}
    - time: 0.71666664
      value: {fileID: 21300000, guid: 865a9959484e2b541a7b9e6f5d1a4226, type: 3}
    - time: 0.7333333
      value: {fileID: 21300000, guid: 43e6772055a210640b2c972e5114a8cd, type: 3}
    - time: 0.74999994
      value: {fileID: 21300000, guid: 80cd44184f3a8b64aac263903caceba5, type: 3}
    - time: 0.7666666
      value: {fileID: 21300000, guid: c02d354b5accfff4ba54898e92658bac, type: 3}
    - time: 0.78333324
      value: {fileID: 21300000, guid: 321d5375d08826341ad171acc13d08ec, type: 3}
    - time: 0.7999999
      value: {fileID: 21300000, guid: cdbcc30b0198fe640a3b06bc45606472, type: 3}
    - time: 0.81666654
      value: {fileID: 21300000, guid: 025815dea676aaf4bbba7b17b5a193a8, type: 3}
    - time: 0.8333332
      value: {fileID: 21300000, guid: 61597188a8e5afe48917908350bbd366, type: 3}
    - time: 0.84999985
      value: {fileID: 21300000, guid: 467a73c8080ac5d43b6b061b08e1d959, type: 3}
    - time: 0.8666665
      value: {fileID: 21300000, guid: 24bf619d9c3fc99469d0b9499ac1cb0e, type: 3}
    - time: 0.88333315
      value: {fileID: 21300000, guid: c4a04628d55b44b4f8945758afa0809a, type: 3}
    - time: 0.8999998
      value: {fileID: 21300000, guid: 9cfd4937ec905c14ca5404ea209de584, type: 3}
    - time: 0.91666645
      value: {fileID: 21300000, guid: 888d178d361fcbb40bdf0c6e3071f3ca, type: 3}
    - time: 0.9333331
      value: {fileID: 21300000, guid: 6a833bbf5176f3940a54222c909cfe10, type: 3}
    - time: 0.94999975
      value: {fileID: 21300000, guid: 3b45d1d67786c6f44896fa0669a09948, type: 3}
    - time: 0.9666664
      value: {fileID: 21300000, guid: 355c321d76d9ea04e8f7864019292907, type: 3}
    - time: 0.98333305
      value: {fileID: 21300000, guid: 28d4ffcd98ed0d644975a6d078170e42, type: 3}
    - time: 0.9999997
      value: {fileID: 21300000, guid: 3e7a390945117da40acccea77d026b5f, type: 3}
    - time: 1.0166664
      value: {fileID: 21300000, guid: a4bcf17da4c7d88489c5bfa555ec8678, type: 3}
    - time: 1.0333331
      value: {fileID: 21300000, guid: 78fe21e934bd7414595feceb3b4f7a39, type: 3}
    - time: 1.0499997
      value: {fileID: 21300000, guid: d8b85737599f91e40b846a48277b8233, type: 3}
    - time: 1.0666664
      value: {fileID: 21300000, guid: eed966ac14aa1d2489e31dbe5dd9f4bd, type: 3}
    - time: 1.083333
      value: {fileID: 21300000, guid: 848cf873997b96f42b1165d9badc629e, type: 3}
    - time: 1.0999997
      value: {fileID: 21300000, guid: 4ab75d5b9467ff1499a33179936bb5ed, type: 3}
    - time: 1.1166663
      value: {fileID: 21300000, guid: 76bcb666e838f7743821d7f81dd43c3a, type: 3}
    - time: 1.133333
      value: {fileID: 21300000, guid: d2be3631dd16a404ea35d88c6777ef24, type: 3}
    - time: 1.1499996
      value: {fileID: 21300000, guid: 30db03296c6da1d489b568be819756ee, type: 3}
    - time: 1.1666663
      value: {fileID: 21300000, guid: 19d45fbe8a97dae45be2ebce88b4cd2a, type: 3}
    - time: 1.1833329
      value: {fileID: 21300000, guid: 286104bc9bbf4ea48b0e9390ad500125, type: 3}
    - time: 1.1999996
      value: {fileID: 21300000, guid: 4e821f385af034c428cbff758708e898, type: 3}
    - time: 1.2166662
      value: {fileID: 21300000, guid: 92ddacd161b98004887bceb8e398519d, type: 3}
    - time: 1.2333329
      value: {fileID: 21300000, guid: 5097d5eb9870af2479e72f5b15c4b528, type: 3}
    - time: 1.2499995
      value: {fileID: 21300000, guid: bd521a95dc05c734bb448e456cad6b77, type: 3}
    - time: 1.2666662
      value: {fileID: 21300000, guid: edf05901d9001ba4ab43a02159fdcb61, type: 3}
    - time: 1.2833328
      value: {fileID: 21300000, guid: 6281e370f4e41324d82def75b90410f5, type: 3}
    attribute: m_Sprite
    path: 
    classID: 212
    script: {fileID: 0}
  m_SampleRate: 60
  m_WrapMode: 0
  m_Bounds:
    m_Center: {x: 0, y: 0, z: 0}
    m_Extent: {x: 0, y: 0, z: 0}
  m_ClipBindingConstant:
    genericBindings:
    - serializedVersion: 2
      path: 0
      attribute: 0
      script: {fileID: 0}
      typeID: 212
      customType: 23
      isPPtrCurve: 1
    pptrCurveMapping:
    - {fileID: 21300000, guid: 744ff8055eadfb449b853fb3b51b2438, type: 3}
    - {fileID: 21300000, guid: 6f631d33de24aae438f6f74123f058ac, type: 3}
    - {fileID: 21300000, guid: 29cb3764cc7cfe84ab2a1920dba917c7, type: 3}
    - {fileID: 21300000, guid: a12f6a0123391c04bb6e5a68e6a99033, type: 3}
    - {fileID: 21300000, guid: c4d67ce7816da6445a589cd96ab24869, type: 3}
    - {fileID: 21300000, guid: 33c0e8b32e1146b4a93f83d51d7afb12, type: 3}
    - {fileID: 21300000, guid: 6e6cf1039aef98547923f8108139d979, type: 3}
    - {fileID: 21300000, guid: e6e6afafa0d2e28408e657b75489e6f4, type: 3}
    - {fileID: 21300000, guid: 3c85956958dda044a92e986710ace360, type: 3}
    - {fileID: 21300000, guid: 0726ce24f0e8a104fbf2ed740b080173, type: 3}
    - {fileID: 21300000, guid: f5a0b4a3087d2df4bac420678356aef6, type: 3}
    - {fileID: 21300000, guid: 938f8e8bbce68694a8828691721da8a9, type: 3}
    - {fileID: 21300000, guid: 3986f413ee5af4443951de2ac0e4794b, type: 3}
    - {fileID: 21300000, guid: 58d337bf05658a841b83299c41d816bd, type: 3}
    - {fileID: 21300000, guid: 165e1d91e8867614cbf347571ba9b403, type: 3}
    - {fileID: 21300000, guid: 368d674946c7fce4bac5535d97c9eb71, type: 3}
    - {fileID: 21300000, guid: c4cfe0c0338ce1440b043ccdf9e02452, type: 3}
    - {fileID: 21300000, guid: 460a262b24b8cb548b882e53820ee6f0, type: 3}
    - {fileID: 21300000, guid: ed35632a685d09744ba6f0c288ef9a04, type: 3}
    - {fileID: 21300000, guid: 62ecbbe6d3b87f945993ce47586ef6ed, type: 3}
    - {fileID: 21300000, guid: 3c759e96ff8e2044b89033cfbc43e9c2, type: 3}
    - {fileID: 21300000, guid: 040398b12078bb94b90cd96c629d68f6, type: 3}
    - {fileID: 21300000, guid: 5090c672c2924b646b11f4bb035f3c67, type: 3}
    - {fileID: 21300000, guid: 2976e1410927de74ea9af3a7daa31888, type: 3}
    - {fileID: 21300000, guid: c77d93159511c5d40a2767e621d82814, type: 3}
    - {fileID: 21300000, guid: e8f89c9b6ef7051499e78e5e1f05a4ac, type: 3}
    - {fileID: 21300000, guid: 08d54b4e6df5624438c7d389b73ffaab, type: 3}
    - {fileID: 21300000, guid: ee83b2964a7360245b1e6d44f7a9f8f7, type: 3}
    - {fileID: 21300000, guid: 5a67bd1945dce514986a594e60b73544, type: 3}
    - {fileID: 21300000, guid: 0ae18c6a007ccfa41a8e250c62eacfff, type: 3}
    - {fileID: 21300000, guid: b82f8be35cf191e4aa4a6f7706568b99, type: 3}
    - {fileID: 21300000, guid: deb809020adf35c49a1c89dd6e489768, type: 3}
    - {fileID: 21300000, guid: b180ef84e5236fb4194c52715579e84e, type: 3}
    - {fileID: 21300000, guid: d6d591ec2068f5b48bd0fb8bcd1bf2fc, type: 3}
    - {fileID: 21300000, guid: 95d96208071fbbf44a56c4fb0cda4644, type: 3}
    - {fileID: 21300000, guid: 4d37d92505250a7469f888553b988230, type: 3}
    - {fileID: 21300000, guid: fce5db7f06c54f247b09b057e2cefcc9, type: 3}
    - {fileID: 21300000, guid: 29ea3768523c9f94b8472ed85ab3a4ac, type: 3}
    - {fileID: 21300000, guid: d06af13a3cbc48c4c8e56a35d54df4fb, type: 3}
    - {fileID: 21300000, guid: 0666af0f5b814ab478f0044baf9c08d4, type: 3}
    - {fileID: 21300000, guid: 34d6478f2f155114e897f2f762ee6507, type: 3}
    - {fileID: 21300000, guid: 99c773aa24c46a143b06d9a8913eae14, type: 3}
    - {fileID: 21300000, guid: f7ed214c2cadf5040a58dbe0a9376536, type: 3}
    - {fileID: 21300000, guid: 865a9959484e2b541a7b9e6f5d1a4226, type: 3}
    - {fileID: 21300000, guid: 43e6772055a210640b2c972e5114a8cd, type: 3}
    - {fileID: 21300000, guid: 80cd44184f3a8b64aac263903caceba5, type: 3}
    - {fileID: 21300000, guid: c02d354b5accfff4ba54898e92658bac, type: 3}
    - {fileID: 21300000, guid: 321d5375d08826341ad171acc13d08ec, type: 3}
    - {fileID: 21300000, guid: cdbcc30b0198fe640a3b06bc45606472, type: 3}
    - {fileID: 21300000, guid: 025815dea676aaf4bbba7b17b5a193a8, type: 3}
    - {fileID: 21300000, guid: 61597188a8e5afe48917908350bbd366, type: 3}
    - {fileID: 21300000, guid: 467a73c8080ac5d43b6b061b08e1d959, type: 3}
    - {fileID: 21300000, guid: 24bf619d9c3fc99469d0b9499ac1cb0e, type: 3}
    - {fileID: 21300000, guid: c4a04628d55b44b4f8945758afa0809a, type: 3}
    - {fileID: 21300000, guid: 9cfd4937ec905c14ca5404ea209de584, type: 3}
    - {fileID: 21300000, guid: 888d178d361fcbb40bdf0c6e3071f3ca, type: 3}
    - {fileID: 21300000, guid: 6a833bbf5176f3940a54222c909cfe10, type: 3}
    - {fileID: 21300000, guid: 3b45d1d67786c6f44896fa0669a09948, type: 3}
    - {fileID: 21300000, guid: 355c321d76d9ea04e8f7864019292907, type: 3}
    - {fileID: 21300000, guid: 28d4ffcd98ed0d644975a6d078170e42, type: 3}
    - {fileID: 21300000, guid: 3e7a390945117da40acccea77d026b5f, type: 3}
    - {fileID: 21300000, guid: a4bcf17da4c7d88489c5bfa555ec8678, type: 3}
    - {fileID: 21300000, guid: 78fe21e934bd7414595feceb3b4f7a39, type: 3}
    - {fileID: 21300000, guid: d8b85737599f91e40b846a48277b8233, type: 3}
    - {fileID: 21300000, guid: eed966ac14aa1d2489e31dbe5dd9f4bd, type: 3}
    - {fileID: 21300000, guid: 848cf873997b96f42b1165d9badc629e, type: 3}
    - {fileID: 21300000, guid: 4ab75d5b9467ff1499a33179936bb5ed, type: 3}
    - {fileID: 21300000, guid: 76bcb666e838f7743821d7f81dd43c3a, type: 3}
    - {fileID: 21300000, guid: d2be3631dd16a404ea35d88c6777ef24, type: 3}
    - {fileID: 21300000, guid: 30db03296c6da1d489b568be819756ee, type: 3}
    - {fileID: 21300000, guid: 19d45fbe8a97dae45be2ebce88b4cd2a, type: 3}
    - {fileID: 21300000, guid: 286104bc9bbf4ea48b0e9390ad500125, type: 3}
    - {fileID: 21300000, guid: 4e821f385af034c428cbff758708e898, type: 3}
    - {fileID: 21300000, guid: 92ddacd161b98004887bceb8e398519d, type: 3}
    - {fileID: 21300000, guid: 5097d5eb9870af2479e72f5b15c4b528, type: 3}
    - {fileID: 21300000, guid: bd521a95dc05c734bb448e456cad6b77, type: 3}
    - {fileID: 21300000, guid: edf05901d9001ba4ab43a02159fdcb61, type: 3}
    - {fileID: 21300000, guid: 6281e370f4e41324d82def75b90410f5, type: 3}
  m_AnimationClipSettings:
    serializedVersion: 2
    m_AdditiveReferencePoseClip: {fileID: 0}
    m_AdditiveReferencePoseTime: 0
    m_StartTime: 0
    m_StopTime: 1.2999995
    m_OrientationOffsetY: 0
    m_Level: 0
    m_CycleOffset: 0
    m_HasAdditiveReferencePose: 0
    m_LoopTime: 1
    m_LoopBlend: 0
    m_LoopBlendOrientation: 0
    m_LoopBlendPositionY: 0
    m_LoopBlendPositionXZ: 0
    m_KeepOriginalOrientation: 0
    m_KeepOriginalPositionY: 1
    m_KeepOriginalPositionXZ: 0
    m_HeightFromFeet: 0
    m_Mirror: 0
  m_EditorCurves: []
  m_EulerEditorCurves: []
  m_HasGenericRootTransform: 0
  m_HasMotionFloatCurves: 0
  m_GenerateMotionCurves: 0
  m_Events: []
